<?xml version="1.0" encoding="utf-8"?>
<!-- Generator: Adobe Illustrator 16.0.0, SVG Export Plug-In . SVG Version: 6.00 Build 0)  -->
<!DOCTYPE svg PUBLIC "-//W3C//DTD SVG 1.1//EN" "http://www.w3.org/Graphics/SVG/1.1/DTD/svg11.dtd">
<svg version="1.1" id="Layer_1" xmlns="http://www.w3.org/2000/svg" xmlns:xlink="http://www.w3.org/1999/xlink" x="0px" y="0px"
	 width="194.382px" height="78.651px" viewBox="0 0 194.382 78.651" enable-background="new 0 0 194.382 78.651"
	 xml:space="preserve">
<linearGradient id="SVGID_1_" gradientUnits="userSpaceOnUse" x1="-74.4736" y1="-112.8325" x2="297.5096" y2="217.1522">
	<stop  offset="0" style="stop-color:#FFFFFF"/>
	<stop  offset="1" style="stop-color:#000000"/>
</linearGradient>
<rect y="-0.001" opacity="0.2" fill="url(#SVGID_1_)" width="194.382" height="78.902"/>
<rect y="-0.251" opacity="0.2" fill="#C3BD5E" width="194.382" height="78.902"/>
<g>
	<g>
		<g>
			<path fill="#414042" d="M30.437,18.345c-2.6,0-4.478,0.721-5.633,2.165c-1.156,1.441-1.734,3.414-1.734,5.918
				c0,1.216,0.144,2.319,0.43,3.308s0.716,1.842,1.287,2.558c0.572,0.715,1.289,1.269,2.146,1.662
				c0.859,0.394,1.859,0.591,3.004,0.591c0.618,0,1.149-0.012,1.591-0.038c0.441-0.022,0.828-0.07,1.162-0.142v-8.618h5.58v12.266
				c-0.67,0.263-1.74,0.543-3.221,0.843c-1.478,0.296-3.302,0.445-5.471,0.445c-1.859,0-3.545-0.287-5.061-0.857
				c-1.513-0.573-2.806-1.407-3.881-2.506c-1.072-1.093-1.9-2.442-2.484-4.042c-0.584-1.595-0.876-3.418-0.876-5.469
				c0-2.074,0.321-3.91,0.965-5.509c0.645-1.596,1.527-2.947,2.646-4.058c1.119-1.109,2.438-1.949,3.952-2.521
				c1.514-0.572,3.13-0.858,4.847-0.858c1.167,0,2.222,0.077,3.163,0.233c0.941,0.155,1.753,0.335,2.432,0.535
				c0.681,0.202,1.241,0.411,1.681,0.629c0.442,0.213,0.757,0.38,0.949,0.498l-1.609,4.471c-0.764-0.406-1.641-0.756-2.629-1.055
				C32.684,18.494,31.604,18.345,30.437,18.345"/>
		</g>
		<g>
			<path fill="#414042" d="M53.145,39.339c-1.74,0-3.243-0.247-4.507-0.733c-1.262-0.488-2.306-1.17-3.128-2.039
				c-0.822-0.871-1.431-1.908-1.824-3.112c-0.394-1.202-0.59-2.531-0.59-3.988V14.054h5.578v14.951c0,0.999,0.114,1.85,0.341,2.555
				c0.227,0.702,0.538,1.274,0.93,1.718c0.393,0.44,0.868,0.755,1.43,0.947c0.56,0.189,1.175,0.283,1.843,0.283
				c1.358,0,2.462-0.414,3.308-1.25c0.845-0.834,1.269-2.253,1.269-4.253V14.054h5.579v15.412c0,1.457-0.203,2.792-0.607,4.007
				c-0.404,1.216-1.025,2.258-1.859,3.129c-0.836,0.871-1.896,1.543-3.184,2.021C56.435,39.098,54.908,39.339,53.145,39.339"/>
		</g>
		<g>
			<rect x="68.734" y="14.054" fill="#414042" width="5.578" height="24.782"/>
		</g>
		<g>
			<polygon fill="#414042" points="96.594,34.046 96.594,38.836 80.036,38.836 80.036,14.054 85.614,14.054 85.614,34.046 			"/>
		</g>
		<g>
			<path fill="#414042" d="M121.876,26.428c0,2.146-0.335,4.016-1.001,5.614c-0.669,1.599-1.614,2.92-2.842,3.97
				c-1.229,1.052-2.726,1.836-4.489,2.36c-1.763,0.524-3.742,0.787-5.937,0.787c-1.001,0-2.17-0.042-3.505-0.127
				c-1.334-0.082-2.646-0.253-3.934-0.516V14.375c1.288-0.236,2.631-0.398,4.023-0.482c1.394-0.083,2.593-0.125,3.594-0.125
				c2.121,0,4.048,0.239,5.776,0.715c1.729,0.478,3.211,1.229,4.452,2.254c1.238,1.025,2.191,2.338,2.86,3.934
				C121.541,22.267,121.876,24.188,121.876,26.428 M105.748,34.295c0.262,0.024,0.566,0.042,0.911,0.054
				c0.346,0.012,0.756,0.018,1.233,0.018c2.792,0,4.858-0.701,6.205-2.108c1.348-1.408,2.022-3.352,2.022-5.83
				c0-2.598-0.645-4.565-1.933-5.9c-1.286-1.335-3.325-2.004-6.114-2.004c-0.382,0-0.776,0.009-1.183,0.021
				c-0.403,0.009-0.784,0.039-1.143,0.089V34.295z"/>
		</g>
		<g>
			<path fill="#414042" d="M0.554,32.923L0.554,32.923C0.556,32.914,0.556,32.906,0.554,32.923"/>
		</g>
	</g>
	<g>
		<path fill="#414042" d="M23.199,47.821c2.587,0,4.514,0.47,5.78,1.408s1.9,2.271,1.9,3.997c0,0.989-0.185,1.831-0.554,2.526
			c-0.37,0.695-0.897,1.257-1.584,1.685c-0.687,0.427-1.527,0.737-2.521,0.93c-0.995,0.193-2.116,0.289-3.366,0.289h-2.48v6.737
			H18.58V48.299c0.633-0.167,1.376-0.289,2.23-0.364C21.663,47.859,22.46,47.821,23.199,47.821z M23.278,49.305
			c-0.669,0-1.236,0.021-1.703,0.063c-0.466,0.042-0.866,0.079-1.2,0.112v7.692h2.27c0.968,0,1.843-0.054,2.626-0.163
			c0.783-0.108,1.452-0.31,2.007-0.604c0.554-0.293,0.98-0.699,1.28-1.219c0.299-0.52,0.448-1.182,0.448-1.986
			c0-0.771-0.163-1.407-0.488-1.91c-0.326-0.503-0.757-0.901-1.293-1.194c-0.537-0.293-1.148-0.498-1.835-0.616
			C24.703,49.364,23.999,49.305,23.278,49.305z"/>
		<path fill="#414042" d="M46.4,53.201c0,1.308-0.361,2.338-1.082,3.092c-0.722,0.755-1.672,1.3-2.851,1.635
			c0.281,0.335,0.646,0.787,1.095,1.357c0.449,0.569,0.911,1.193,1.386,1.872c0.476,0.68,0.941,1.388,1.399,2.125
			c0.457,0.737,0.845,1.441,1.161,2.111h-1.927c-0.369-0.67-0.77-1.341-1.201-2.011c-0.431-0.671-0.871-1.32-1.319-1.948
			c-0.449-0.629-0.885-1.211-1.307-1.747c-0.423-0.536-0.792-1.006-1.108-1.408c-0.563,0.051-1.127,0.075-1.689,0.075h-2.956v7.039
			h-1.795V48.299c0.633-0.167,1.376-0.289,2.23-0.364c0.853-0.075,1.641-0.113,2.362-0.113c2.516,0,4.412,0.453,5.688,1.357
			C45.763,50.084,46.4,51.425,46.4,53.201z M39.01,49.305c-0.669,0-1.254,0.021-1.756,0.063c-0.501,0.042-0.919,0.079-1.253,0.112
			v7.416h2.48c0.827,0,1.61-0.037,2.35-0.113c0.739-0.075,1.381-0.242,1.927-0.502c0.545-0.26,0.977-0.633,1.293-1.119
			c0.317-0.486,0.476-1.147,0.476-1.986c0-0.771-0.158-1.407-0.476-1.91c-0.316-0.503-0.73-0.9-1.24-1.194
			c-0.511-0.293-1.096-0.494-1.755-0.604C40.396,49.359,39.713,49.305,39.01,49.305z"/>
		<path fill="#414042" d="M50.519,65.394V47.973h10.558v1.483h-8.763v6.058h7.813v1.458h-7.813v6.938h9.449v1.483H50.519z"/>
		<path fill="#414042" d="M73.403,62.88c-0.178-0.419-0.43-0.972-0.756-1.659c-0.327-0.688-0.693-1.437-1.101-2.25
			c-0.406-0.813-0.822-1.65-1.246-2.514s-0.831-1.672-1.219-2.426c-0.39-0.755-0.734-1.416-1.034-1.986
			c-0.301-0.569-0.522-0.972-0.663-1.207c-0.229,2.096-0.409,4.37-0.541,6.825c-0.132,2.456-0.251,5.032-0.356,7.73h-1.769
			c0.158-3.167,0.339-6.2,0.541-9.101c0.202-2.898,0.453-5.672,0.753-8.32h1.583c0.529,0.838,1.093,1.806,1.693,2.903
			c0.599,1.098,1.194,2.237,1.784,3.419c0.591,1.182,1.164,2.347,1.72,3.494c0.555,1.148,1.045,2.184,1.468,3.104
			c0.423-0.921,0.912-1.956,1.468-3.104c0.556-1.147,1.129-2.313,1.719-3.494c0.591-1.182,1.187-2.321,1.786-3.419
			c0.599-1.098,1.163-2.065,1.692-2.903h1.505c0.299,2.648,0.55,5.422,0.752,8.32c0.202,2.9,0.383,5.934,0.541,9.101h-1.821
			c-0.105-2.698-0.225-5.274-0.356-7.73c-0.132-2.455-0.313-4.729-0.541-6.825c-0.141,0.235-0.361,0.638-0.66,1.207
			c-0.299,0.57-0.643,1.231-1.029,1.986c-0.387,0.754-0.792,1.563-1.214,2.426c-0.423,0.863-0.836,1.701-1.241,2.514
			c-0.404,0.813-0.77,1.563-1.095,2.25c-0.326,0.688-0.577,1.24-0.753,1.659H73.403z"/>
		<path fill="#414042" d="M88,47.973h1.795v17.421H88V47.973z"/>
		<path fill="#414042" d="M94.545,65.394V47.973h10.558v1.483H96.34v6.058h7.813v1.458H96.34v6.938h9.449v1.483H94.545z"/>
		<path fill="#414042" d="M121.389,53.201c0,1.308-0.361,2.338-1.082,3.092c-0.722,0.755-1.672,1.3-2.851,1.635
			c0.281,0.335,0.646,0.787,1.095,1.357c0.449,0.569,0.911,1.193,1.386,1.872c0.476,0.68,0.941,1.388,1.399,2.125
			c0.457,0.737,0.845,1.441,1.161,2.111h-1.927c-0.369-0.67-0.77-1.341-1.201-2.011c-0.431-0.671-0.871-1.32-1.319-1.948
			c-0.449-0.629-0.885-1.211-1.307-1.747c-0.423-0.536-0.792-1.006-1.108-1.408c-0.563,0.051-1.127,0.075-1.689,0.075h-2.956v7.039
			h-1.795V48.299c0.633-0.167,1.376-0.289,2.23-0.364c0.853-0.075,1.641-0.113,2.362-0.113c2.516,0,4.412,0.453,5.688,1.357
			C120.751,50.084,121.389,51.425,121.389,53.201z M113.998,49.305c-0.669,0-1.254,0.021-1.756,0.063
			c-0.501,0.042-0.919,0.079-1.253,0.112v7.416h2.48c0.827,0,1.61-0.037,2.35-0.113c0.739-0.075,1.381-0.242,1.927-0.502
			c0.545-0.26,0.977-0.633,1.293-1.119c0.317-0.486,0.476-1.147,0.476-1.986c0-0.771-0.158-1.407-0.476-1.91
			c-0.316-0.503-0.73-0.9-1.24-1.194c-0.511-0.293-1.096-0.494-1.755-0.604C115.384,49.359,114.701,49.305,113.998,49.305z"/>
	</g>
	<g>
		<path fill="#CF3135" d="M182.542,43.967l-1.473-1.002v0.007h-5.853c-1.129,5.955-5.295,10.831-10.829,12.957
			c-0.015,0.008-0.027,0.011-0.044,0.02c-0.199,0.074-0.4,0.146-0.605,0.214c-0.06,0.02-0.118,0.041-0.177,0.063
			c-0.178,0.056-0.356,0.109-0.536,0.161c-0.089,0.028-0.18,0.054-0.268,0.077c-0.16,0.045-0.321,0.087-0.486,0.127
			c-0.11,0.025-0.221,0.051-0.334,0.077c-0.148,0.032-0.299,0.064-0.446,0.094c-0.13,0.025-0.265,0.047-0.394,0.068
			c-0.137,0.025-0.273,0.049-0.412,0.068c-0.152,0.022-0.302,0.037-0.452,0.058c-0.124,0.014-0.247,0.03-0.372,0.044
			c-0.178,0.017-0.357,0.028-0.536,0.04c-0.104,0.008-0.203,0.017-0.305,0.02c-0.281,0.015-0.566,0.022-0.852,0.022h-0.001l0,0
			c-0.079,0-0.161-0.005-0.241-0.005c-9.474-0.131-17.114-7.845-17.114-17.351c0-9.585,7.771-17.356,17.355-17.356
			c4.691,0,8.946,1.865,12.07,4.891l-0.069,0.057l-3.626,3.027l-1.812,1.514c-1.779-1.485-4.066-2.38-6.563-2.38
			c-5.66,0-10.248,4.588-10.248,10.248s4.588,10.246,10.248,10.246c4.525,0,8.363-2.933,9.722-7h-6.098
			c-0.801,0.777-1.892,1.256-3.097,1.256c-2.46,0-4.452-1.994-4.452-4.45c0-2.459,1.992-4.453,4.452-4.453
			c1.205,0,2.296,0.479,3.096,1.259h19.191l1.56-0.999c0.621-0.396,0.941-1.295,0.715-1.994l-1.157-3.555
			c-0.228-0.701-1.014-1.24-1.749-1.194l-2.971,0.176c-0.847-1.521-1.865-2.93-3.036-4.201l1.08-2.755
			c0.269-0.686,0-1.603-0.595-2.037l-3.025-2.196c-0.595-0.434-1.549-0.405-2.118,0.061l-2.269,1.864
			c-1.563-0.725-3.226-1.275-4.963-1.618l-0.739-2.833c-0.187-0.713-0.94-1.295-1.678-1.295H156.3c-0.737,0-1.493,0.582-1.68,1.295
			l-0.739,2.833c-1.738,0.343-3.404,0.894-4.97,1.618l-2.263-1.86c-0.569-0.468-1.52-0.498-2.117-0.064l-3.023,2.196
			c-0.597,0.435-0.861,1.352-0.592,2.035l1.08,2.752c-1.172,1.273-2.197,2.689-3.045,4.213l-2.965-0.182
			c-0.735-0.043-1.523,0.492-1.751,1.193l-1.157,3.555c-0.228,0.699,0.096,1.598,0.716,1.994l2.539,1.619
			c-0.092,0.815-0.141,1.646-0.141,2.487c0,0.895,0.054,1.777,0.161,2.65l-2.56,1.628c-0.62,0.398-0.943,1.291-0.716,1.994
			l1.157,3.556c0.228,0.7,1.016,1.237,1.751,1.19l3.059-0.183c0.843,1.48,1.851,2.853,2.999,4.094l-1.128,2.875
			c-0.27,0.685-0.005,1.603,0.592,2.033l3.023,2.194c0.598,0.438,1.548,0.407,2.117-0.062l2.398-1.978
			c1.513,0.695,3.12,1.218,4.796,1.555l0.782,3.014c0.184,0.715,0.938,1.298,1.675,1.298h3.737c0.737,0,1.489-0.583,1.674-1.298
			l0.782-3.014c1.673-0.333,3.278-0.859,4.788-1.548l2.404,1.972c0.569,0.468,1.523,0.499,2.118,0.061l3.025-2.194
			c0.595-0.431,0.863-1.35,0.595-2.033l-1.127-2.882c1.145-1.237,2.148-2.604,2.986-4.082l3.067,0.18
			c0.735,0.045,1.521-0.492,1.749-1.192l1.157-3.556C183.483,45.26,183.163,44.365,182.542,43.967"/>
	</g>
	<g>
		<g>
			<polygon fill="#CF3135" points="122.722,43.754 16.867,43.754 16.867,42.754 122.722,42.754 122.722,43.754 			"/>
		</g>
	</g>
</g>
<g opacity="0.05">
	<g>
		<g>
			<linearGradient id="SVGID_2_" gradientUnits="userSpaceOnUse" x1="27.7729" y1="75.6963" x2="27.7729" y2="65.9463">
				<stop  offset="0" style="stop-color:#000000;stop-opacity:0"/>
				<stop  offset="1" style="stop-color:#000000"/>
			</linearGradient>
			<path fill="url(#SVGID_2_)" d="M30.437,112.457c-2.6,0-4.478-0.721-5.633-2.164c-1.156-1.441-1.734-3.414-1.734-5.918
				c0-1.217,0.144-2.32,0.43-3.309s0.716-1.842,1.287-2.557c0.572-0.715,1.289-1.27,2.146-1.662
				c0.859-0.395,1.859-0.592,3.004-0.592c0.618,0,1.149,0.012,1.591,0.039c0.441,0.021,0.828,0.07,1.162,0.141v8.619h5.58V92.789
				c-0.67-0.264-1.74-0.543-3.221-0.844c-1.478-0.295-3.302-0.445-5.471-0.445c-1.859,0-3.545,0.287-5.061,0.857
				c-1.513,0.574-2.806,1.408-3.881,2.506c-1.072,1.094-1.9,2.443-2.484,4.043c-0.584,1.594-0.876,3.418-0.876,5.469
				c0,2.074,0.321,3.91,0.965,5.508c0.645,1.596,1.527,2.947,2.646,4.059c1.119,1.109,2.438,1.949,3.952,2.521
				c1.514,0.572,3.13,0.857,4.847,0.857c1.167,0,2.222-0.076,3.163-0.232s1.753-0.336,2.432-0.535
				c0.681-0.203,1.241-0.412,1.681-0.629c0.442-0.213,0.757-0.381,0.949-0.498l-1.609-4.471c-0.764,0.406-1.641,0.756-2.629,1.055
				C32.684,112.309,31.604,112.457,30.437,112.457"/>
		</g>
		<g>
			<linearGradient id="SVGID_3_" gradientUnits="userSpaceOnUse" x1="53.2339" y1="75.6963" x2="53.2339" y2="65.9463">
				<stop  offset="0" style="stop-color:#000000;stop-opacity:0"/>
				<stop  offset="1" style="stop-color:#000000"/>
			</linearGradient>
			<path fill="url(#SVGID_3_)" d="M53.145,91.463c-1.74,0-3.243,0.248-4.507,0.734c-1.262,0.488-2.306,1.17-3.128,2.039
				c-0.822,0.871-1.431,1.908-1.824,3.111s-0.59,2.531-0.59,3.988v15.412h5.578v-14.951c0-0.998,0.114-1.85,0.341-2.555
				c0.227-0.701,0.538-1.273,0.93-1.717c0.393-0.441,0.868-0.756,1.43-0.947c0.56-0.189,1.175-0.283,1.843-0.283
				c1.358,0,2.462,0.414,3.308,1.25c0.845,0.834,1.269,2.252,1.269,4.252v14.951h5.579v-15.412c0-1.457-0.203-2.791-0.607-4.006
				c-0.404-1.217-1.025-2.258-1.859-3.129c-0.836-0.871-1.896-1.543-3.184-2.021C56.435,91.705,54.908,91.463,53.145,91.463"/>
		</g>
		<g>
			<linearGradient id="SVGID_4_" gradientUnits="userSpaceOnUse" x1="71.5234" y1="75.6978" x2="71.5234" y2="65.9481">
				<stop  offset="0" style="stop-color:#000000;stop-opacity:0"/>
				<stop  offset="1" style="stop-color:#000000"/>
			</linearGradient>
			<rect x="68.734" y="91.967" fill="url(#SVGID_4_)" width="5.578" height="24.781"/>
		</g>
		<g>
			<linearGradient id="SVGID_5_" gradientUnits="userSpaceOnUse" x1="88.3149" y1="75.6978" x2="88.3149" y2="65.9481">
				<stop  offset="0" style="stop-color:#000000;stop-opacity:0"/>
				<stop  offset="1" style="stop-color:#000000"/>
			</linearGradient>
			<polygon fill="url(#SVGID_5_)" points="96.594,96.756 96.594,91.967 80.036,91.967 80.036,116.748 85.614,116.748 85.614,96.756 
							"/>
		</g>
		<g>
			<linearGradient id="SVGID_6_" gradientUnits="userSpaceOnUse" x1="111.0225" y1="75.6953" x2="111.0225" y2="65.9449">
				<stop  offset="0" style="stop-color:#000000;stop-opacity:0"/>
				<stop  offset="1" style="stop-color:#000000"/>
			</linearGradient>
			<path fill="url(#SVGID_6_)" d="M121.876,104.375c0,2.24-0.335,4.16-1.001,5.758c-0.669,1.596-1.622,2.908-2.86,3.934
				c-1.241,1.025-2.724,1.775-4.452,2.254c-1.729,0.475-3.655,0.715-5.776,0.715c-1.001,0-2.2-0.043-3.594-0.125
				c-1.393-0.084-2.735-0.246-4.023-0.482V92.285c1.288-0.262,2.6-0.434,3.934-0.516c1.335-0.084,2.504-0.127,3.505-0.127
				c2.194,0,4.174,0.264,5.937,0.787c1.764,0.525,3.26,1.309,4.489,2.361c1.228,1.049,2.173,2.371,2.842,3.969
				C121.541,100.359,121.876,102.229,121.876,104.375 M105.748,112.17c0.358,0.049,0.739,0.08,1.143,0.088
				c0.406,0.012,0.801,0.021,1.183,0.021c2.789,0,4.828-0.67,6.114-2.004c1.288-1.336,1.933-3.303,1.933-5.9
				c0-2.479-0.675-4.422-2.022-5.83c-1.347-1.408-3.413-2.109-6.205-2.109c-0.478,0-0.888,0.006-1.233,0.018
				c-0.345,0.012-0.649,0.029-0.911,0.055V112.17z"/>
		</g>
		<g>
			<linearGradient id="SVGID_7_" gradientUnits="userSpaceOnUse" x1="0.5542" y1="73.478" x2="0.5542" y2="62.753">
				<stop  offset="0" style="stop-color:#000000;stop-opacity:0"/>
				<stop  offset="1" style="stop-color:#000000"/>
			</linearGradient>
			<path fill="url(#SVGID_7_)" d="M0.554,97.879L0.554,97.879C0.556,97.889,0.556,97.896,0.554,97.879"/>
		</g>
	</g>
	<g>
		<linearGradient id="SVGID_8_" gradientUnits="userSpaceOnUse" x1="24.73" y1="75.6968" x2="24.73" y2="65.9473">
			<stop  offset="0" style="stop-color:#000000;stop-opacity:0"/>
			<stop  offset="1" style="stop-color:#000000"/>
		</linearGradient>
		<path fill="url(#SVGID_8_)" d="M20.811,82.867c-0.854-0.074-1.598-0.197-2.23-0.363V65.409h1.795v6.737h2.48
			c1.25,0,2.371,0.096,3.366,0.289c0.993,0.192,1.834,0.503,2.521,0.93c0.687,0.428,1.214,0.989,1.584,1.685
			c0.369,0.695,0.554,1.537,0.554,2.526c0,1.725-0.634,3.059-1.9,3.996c-1.267,0.939-3.193,1.408-5.78,1.408
			C22.46,82.98,21.663,82.943,20.811,82.867z M25.39,81.322c0.687-0.119,1.298-0.324,1.835-0.617
			c0.536-0.293,0.967-0.691,1.293-1.193c0.325-0.504,0.488-1.141,0.488-1.91c0-0.805-0.149-1.467-0.448-1.986
			c-0.3-0.52-0.727-0.926-1.28-1.219c-0.555-0.294-1.224-0.495-2.007-0.604c-0.783-0.109-1.658-0.163-2.626-0.163h-2.27v7.692
			c0.334,0.033,0.734,0.07,1.2,0.111c0.467,0.043,1.034,0.064,1.703,0.064C23.999,81.498,24.703,81.438,25.39,81.322z"/>
		<linearGradient id="SVGID_9_" gradientUnits="userSpaceOnUse" x1="40.8574" y1="75.6968" x2="40.8574" y2="65.9473">
			<stop  offset="0" style="stop-color:#000000;stop-opacity:0"/>
			<stop  offset="1" style="stop-color:#000000"/>
		</linearGradient>
		<path fill="url(#SVGID_9_)" d="M44.486,81.623c-1.275,0.904-3.172,1.357-5.688,1.357c-0.722,0-1.51-0.037-2.362-0.113
			c-0.854-0.074-1.598-0.197-2.23-0.363V65.409h1.795v7.039h2.956c0.563,0,1.126,0.024,1.689,0.075
			c0.316-0.402,0.686-0.872,1.108-1.408c0.422-0.536,0.857-1.118,1.307-1.747c0.448-0.628,0.889-1.277,1.319-1.948
			c0.432-0.67,0.832-1.341,1.201-2.011h1.927c-0.316,0.67-0.704,1.374-1.161,2.111c-0.458,0.737-0.924,1.445-1.399,2.125
			c-0.475,0.679-0.937,1.303-1.386,1.872c-0.448,0.57-0.813,1.022-1.095,1.357c1.179,0.335,2.129,0.88,2.851,1.635
			c0.721,0.754,1.082,1.784,1.082,3.092C46.4,79.377,45.763,80.719,44.486,81.623z M41.056,81.334
			c0.659-0.109,1.244-0.311,1.755-0.604c0.51-0.293,0.924-0.691,1.24-1.193c0.317-0.504,0.476-1.141,0.476-1.91
			c0-0.839-0.158-1.5-0.476-1.986c-0.316-0.486-0.748-0.859-1.293-1.119c-0.546-0.26-1.188-0.427-1.927-0.502
			c-0.739-0.076-1.522-0.113-2.35-0.113h-2.48v7.416c0.334,0.033,0.752,0.07,1.253,0.111c0.502,0.043,1.087,0.064,1.756,0.064
			C39.713,81.498,40.396,81.443,41.056,81.334z"/>
		<linearGradient id="SVGID_10_" gradientUnits="userSpaceOnUse" x1="56.1406" y1="75.6973" x2="56.1406" y2="65.9473">
			<stop  offset="0" style="stop-color:#000000;stop-opacity:0"/>
			<stop  offset="1" style="stop-color:#000000"/>
		</linearGradient>
		<path fill="url(#SVGID_10_)" d="M61.763,65.409v1.483h-9.449v6.938h7.813v1.458h-7.813v6.057h8.763v1.484H50.519V65.409H61.763z"
			/>
		<linearGradient id="SVGID_11_" gradientUnits="userSpaceOnUse" x1="74.2212" y1="75.6973" x2="74.2212" y2="65.9473">
			<stop  offset="0" style="stop-color:#000000;stop-opacity:0"/>
			<stop  offset="1" style="stop-color:#000000"/>
		</linearGradient>
		<path fill="url(#SVGID_11_)" d="M75.013,67.923c0.176,0.419,0.427,0.972,0.753,1.659c0.325,0.688,0.69,1.437,1.095,2.25
			c0.405,0.813,0.818,1.65,1.241,2.514c0.422,0.863,0.827,1.672,1.214,2.426c0.387,0.755,0.73,1.416,1.029,1.986
			c0.299,0.568,0.52,0.971,0.66,1.207c0.229-2.096,0.409-4.37,0.541-6.825c0.132-2.456,0.251-5.032,0.356-7.73h1.821
			c-0.158,3.167-0.339,6.2-0.541,9.101c-0.202,2.898-0.453,5.672-0.752,8.32h-1.505c-0.529-0.838-1.094-1.807-1.692-2.904
			c-0.6-1.098-1.195-2.236-1.786-3.418c-0.59-1.182-1.163-2.347-1.719-3.494c-0.556-1.148-1.045-2.184-1.468-3.104
			c-0.423,0.921-0.913,1.956-1.468,3.104c-0.556,1.147-1.129,2.313-1.72,3.494c-0.59,1.182-1.186,2.32-1.784,3.418
			c-0.601,1.098-1.164,2.066-1.693,2.904h-1.583c-0.3-2.648-0.551-5.422-0.753-8.32c-0.202-2.9-0.383-5.934-0.541-9.101h1.769
			c0.105,2.698,0.225,5.274,0.356,7.73c0.132,2.455,0.313,4.729,0.541,6.825c0.141-0.236,0.362-0.639,0.663-1.207
			c0.3-0.57,0.645-1.231,1.034-1.986c0.388-0.754,0.795-1.563,1.219-2.426s0.84-1.701,1.246-2.514
			c0.407-0.813,0.773-1.563,1.101-2.25c0.326-0.688,0.578-1.24,0.756-1.659H75.013z"/>
		<linearGradient id="SVGID_12_" gradientUnits="userSpaceOnUse" x1="88.8975" y1="75.6973" x2="88.8975" y2="65.9473">
			<stop  offset="0" style="stop-color:#000000;stop-opacity:0"/>
			<stop  offset="1" style="stop-color:#000000"/>
		</linearGradient>
		<path fill="url(#SVGID_12_)" d="M88,65.409h1.795V82.83H88V65.409z"/>
		<linearGradient id="SVGID_13_" gradientUnits="userSpaceOnUse" x1="100.167" y1="75.6973" x2="100.167" y2="65.9473">
			<stop  offset="0" style="stop-color:#000000;stop-opacity:0"/>
			<stop  offset="1" style="stop-color:#000000"/>
		</linearGradient>
		<path fill="url(#SVGID_13_)" d="M105.789,65.409v1.483H96.34v6.938h7.813v1.458H96.34v6.057h8.763v1.484H94.545V65.409H105.789z"
			/>
		<linearGradient id="SVGID_14_" gradientUnits="userSpaceOnUse" x1="115.8457" y1="75.6968" x2="115.8457" y2="65.9473">
			<stop  offset="0" style="stop-color:#000000;stop-opacity:0"/>
			<stop  offset="1" style="stop-color:#000000"/>
		</linearGradient>
		<path fill="url(#SVGID_14_)" d="M119.475,81.623c-1.275,0.904-3.172,1.357-5.688,1.357c-0.722,0-1.51-0.037-2.362-0.113
			c-0.854-0.074-1.598-0.197-2.23-0.363V65.409h1.795v7.039h2.956c0.563,0,1.126,0.024,1.689,0.075
			c0.316-0.402,0.686-0.872,1.108-1.408c0.422-0.536,0.857-1.118,1.307-1.747c0.448-0.628,0.889-1.277,1.319-1.948
			c0.432-0.67,0.832-1.341,1.201-2.011h1.927c-0.316,0.67-0.704,1.374-1.161,2.111c-0.458,0.737-0.924,1.445-1.399,2.125
			c-0.475,0.679-0.937,1.303-1.386,1.872c-0.448,0.57-0.813,1.022-1.095,1.357c1.179,0.335,2.129,0.88,2.851,1.635
			c0.721,0.754,1.082,1.784,1.082,3.092C121.389,79.377,120.751,80.719,119.475,81.623z M116.044,81.334
			c0.659-0.109,1.244-0.311,1.755-0.604c0.51-0.293,0.924-0.691,1.24-1.193c0.317-0.504,0.476-1.141,0.476-1.91
			c0-0.839-0.158-1.5-0.476-1.986c-0.316-0.486-0.748-0.859-1.293-1.119c-0.546-0.26-1.188-0.427-1.927-0.502
			c-0.739-0.076-1.522-0.113-2.35-0.113h-2.48v7.416c0.334,0.033,0.752,0.07,1.253,0.111c0.502,0.043,1.087,0.064,1.756,0.064
			C114.701,81.498,115.384,81.443,116.044,81.334z"/>
	</g>
	<g>
		<linearGradient id="SVGID_15_" gradientUnits="userSpaceOnUse" x1="158.167" y1="75.6973" x2="158.167" y2="65.9473">
			<stop  offset="0" style="stop-color:#000000;stop-opacity:0"/>
			<stop  offset="1" style="stop-color:#000000"/>
		</linearGradient>
		<path fill="url(#SVGID_15_)" d="M182.542,86.836l-1.473,1.002V87.83h-5.853c-1.129-5.955-5.295-10.83-10.829-12.956
			c-0.015-0.008-0.027-0.011-0.044-0.02c-0.199-0.074-0.4-0.146-0.605-0.214c-0.06-0.02-0.118-0.041-0.177-0.063
			c-0.178-0.056-0.356-0.109-0.536-0.161c-0.089-0.028-0.18-0.054-0.268-0.077c-0.16-0.045-0.321-0.087-0.486-0.127
			c-0.11-0.025-0.221-0.051-0.334-0.077c-0.148-0.032-0.299-0.064-0.446-0.094c-0.13-0.025-0.265-0.047-0.394-0.068
			c-0.137-0.025-0.273-0.049-0.412-0.068c-0.152-0.022-0.302-0.037-0.452-0.058c-0.124-0.014-0.247-0.03-0.372-0.044
			c-0.178-0.017-0.357-0.028-0.536-0.04c-0.104-0.008-0.203-0.017-0.305-0.02c-0.281-0.015-0.566-0.022-0.852-0.022h-0.001l0,0
			c-0.079,0-0.161,0.005-0.241,0.005c-9.474,0.131-17.114,7.844-17.114,17.35c0,9.586,7.771,17.357,17.355,17.357
			c4.691,0,8.946-1.865,12.07-4.891l-0.069-0.057l-3.626-3.027l-1.812-1.514c-1.779,1.484-4.066,2.379-6.563,2.379
			c-5.66,0-10.248-4.588-10.248-10.248s4.588-10.246,10.248-10.246c4.525,0,8.363,2.934,9.722,7h-6.098
			c-0.801-0.777-1.892-1.256-3.097-1.256c-2.46,0-4.452,1.994-4.452,4.451c0,2.459,1.992,4.453,4.452,4.453
			c1.205,0,2.296-0.479,3.096-1.26h19.191l1.56,1c0.621,0.396,0.941,1.295,0.715,1.994l-1.157,3.555
			c-0.228,0.701-1.014,1.24-1.749,1.193l-2.971-0.176c-0.847,1.521-1.865,2.93-3.036,4.201l1.08,2.756
			c0.269,0.686,0,1.602-0.595,2.037l-3.025,2.195c-0.595,0.434-1.549,0.406-2.118-0.061l-2.269-1.863
			c-1.563,0.725-3.226,1.275-4.963,1.617l-0.739,2.834c-0.187,0.713-0.94,1.295-1.678,1.295H156.3c-0.737,0-1.493-0.582-1.68-1.295
			l-0.739-2.834c-1.738-0.342-3.404-0.893-4.97-1.617l-2.263,1.859c-0.569,0.469-1.52,0.498-2.117,0.064l-3.023-2.195
			c-0.597-0.436-0.861-1.352-0.592-2.035l1.08-2.752c-1.172-1.273-2.197-2.689-3.045-4.213l-2.965,0.182
			c-0.735,0.043-1.523-0.492-1.751-1.193l-1.157-3.555c-0.228-0.699,0.096-1.598,0.716-1.994l2.539-1.619
			c-0.092-0.816-0.141-1.646-0.141-2.488c0-0.895,0.054-1.777,0.161-2.65l-2.56-1.627c-0.62-0.398-0.943-1.291-0.716-1.994
			l1.157-3.557c0.228-0.699,1.016-1.236,1.751-1.189l3.059,0.182c0.843-1.48,1.851-2.852,2.999-4.093l-1.128-2.875
			c-0.27-0.685-0.005-1.603,0.592-2.033l3.023-2.194c0.598-0.438,1.548-0.407,2.117,0.062l2.398,1.978
			c1.513-0.695,3.12-1.218,4.796-1.555l0.782-3.014c0.184-0.715,0.938-1.298,1.675-1.298h3.737c0.737,0,1.489,0.583,1.674,1.298
			l0.782,3.014c1.673,0.333,3.278,0.859,4.788,1.548l2.404-1.972c0.569-0.468,1.523-0.499,2.118-0.061l3.025,2.194
			c0.595,0.431,0.863,1.35,0.595,2.033l-1.127,2.882c1.145,1.237,2.148,2.604,2.986,4.082l3.067-0.18
			c0.735-0.045,1.521,0.492,1.749,1.191l1.157,3.557C183.483,85.543,183.163,86.438,182.542,86.836"/>
	</g>
	<g>
		<g>
			<linearGradient id="SVGID_16_" gradientUnits="userSpaceOnUse" x1="69.7944" y1="75.6973" x2="69.7944" y2="65.9473">
				<stop  offset="0" style="stop-color:#000000;stop-opacity:0"/>
				<stop  offset="1" style="stop-color:#000000"/>
			</linearGradient>
			<polygon fill="url(#SVGID_16_)" points="122.722,87.049 16.867,87.049 16.867,88.049 122.722,88.049 122.722,87.049 			"/>
		</g>
	</g>
</g>
<g>
	<g>
		<g>
			<linearGradient id="SVGID_17_" gradientUnits="userSpaceOnUse" x1="27.7729" y1="-223.3242" x2="27.7729" y2="70.2037">
				<stop  offset="0" style="stop-color:#000000"/>
				<stop  offset="1" style="stop-color:#000000;stop-opacity:0"/>
			</linearGradient>
			<path fill="url(#SVGID_17_)" d="M30.437,18.345c-2.6,0-4.478,0.721-5.633,2.165c-1.156,1.441-1.734,3.414-1.734,5.918
				c0,1.216,0.144,2.319,0.43,3.308s0.716,1.842,1.287,2.558c0.572,0.715,1.289,1.269,2.146,1.662
				c0.859,0.394,1.859,0.591,3.004,0.591c0.618,0,1.149-0.012,1.591-0.038c0.441-0.022,0.828-0.07,1.162-0.142v-8.618h5.58v12.266
				c-0.67,0.263-1.74,0.543-3.221,0.843c-1.478,0.296-3.302,0.445-5.471,0.445c-1.859,0-3.545-0.287-5.061-0.857
				c-1.513-0.573-2.806-1.407-3.881-2.506c-1.072-1.093-1.9-2.442-2.484-4.042c-0.584-1.595-0.876-3.418-0.876-5.469
				c0-2.074,0.321-3.91,0.965-5.509c0.645-1.596,1.527-2.947,2.646-4.058c1.119-1.109,2.438-1.949,3.952-2.521
				c1.514-0.572,3.13-0.858,4.847-0.858c1.167,0,2.222,0.077,3.163,0.233c0.941,0.155,1.753,0.335,2.432,0.535
				c0.681,0.202,1.241,0.411,1.681,0.629c0.442,0.213,0.757,0.38,0.949,0.498l-1.609,4.471c-0.764-0.406-1.641-0.756-2.629-1.055
				C32.684,18.494,31.604,18.345,30.437,18.345"/>
		</g>
		<g>
			<linearGradient id="SVGID_18_" gradientUnits="userSpaceOnUse" x1="53.2339" y1="-223.3242" x2="53.2339" y2="70.2036">
				<stop  offset="0" style="stop-color:#000000"/>
				<stop  offset="1" style="stop-color:#000000;stop-opacity:0"/>
			</linearGradient>
			<path fill="url(#SVGID_18_)" d="M53.145,39.339c-1.74,0-3.243-0.247-4.507-0.733c-1.262-0.488-2.306-1.17-3.128-2.039
				c-0.822-0.871-1.431-1.908-1.824-3.112c-0.394-1.202-0.59-2.531-0.59-3.988V14.054h5.578v14.951c0,0.999,0.114,1.85,0.341,2.555
				c0.227,0.702,0.538,1.274,0.93,1.718c0.393,0.44,0.868,0.755,1.43,0.947c0.56,0.189,1.175,0.283,1.843,0.283
				c1.358,0,2.462-0.414,3.308-1.25c0.845-0.834,1.269-2.253,1.269-4.253V14.054h5.579v15.412c0,1.457-0.203,2.792-0.607,4.007
				c-0.404,1.216-1.025,2.258-1.859,3.129c-0.836,0.871-1.896,1.543-3.184,2.021C56.435,39.098,54.908,39.339,53.145,39.339"/>
		</g>
		<g>
			<linearGradient id="SVGID_19_" gradientUnits="userSpaceOnUse" x1="71.5234" y1="-223.3242" x2="71.5234" y2="70.2039">
				<stop  offset="0" style="stop-color:#000000"/>
				<stop  offset="1" style="stop-color:#000000;stop-opacity:0"/>
			</linearGradient>
			<rect x="68.734" y="14.054" fill="url(#SVGID_19_)" width="5.578" height="24.782"/>
		</g>
		<g>
			<linearGradient id="SVGID_20_" gradientUnits="userSpaceOnUse" x1="88.3149" y1="-223.3242" x2="88.3149" y2="70.2039">
				<stop  offset="0" style="stop-color:#000000"/>
				<stop  offset="1" style="stop-color:#000000;stop-opacity:0"/>
			</linearGradient>
			<polygon fill="url(#SVGID_20_)" points="96.594,34.046 96.594,38.836 80.036,38.836 80.036,14.054 85.614,14.054 85.614,34.046 
							"/>
		</g>
		<g>
			<linearGradient id="SVGID_21_" gradientUnits="userSpaceOnUse" x1="111.0225" y1="-223.3242" x2="111.0224" y2="70.2027">
				<stop  offset="0" style="stop-color:#000000"/>
				<stop  offset="1" style="stop-color:#000000;stop-opacity:0"/>
			</linearGradient>
			<path fill="url(#SVGID_21_)" d="M121.876,26.428c0,2.146-0.335,4.016-1.001,5.614c-0.669,1.599-1.614,2.92-2.842,3.97
				c-1.229,1.052-2.726,1.836-4.489,2.36c-1.763,0.524-3.742,0.787-5.937,0.787c-1.001,0-2.17-0.042-3.505-0.127
				c-1.334-0.082-2.646-0.253-3.934-0.516V14.375c1.288-0.236,2.631-0.398,4.023-0.482c1.394-0.083,2.593-0.125,3.594-0.125
				c2.121,0,4.048,0.239,5.776,0.715c1.729,0.478,3.211,1.229,4.452,2.254c1.238,1.025,2.191,2.338,2.86,3.934
				C121.541,22.267,121.876,24.188,121.876,26.428 M105.748,34.295c0.262,0.024,0.566,0.042,0.911,0.054
				c0.346,0.012,0.756,0.018,1.233,0.018c2.792,0,4.858-0.701,6.205-2.108c1.348-1.408,2.022-3.352,2.022-5.83
				c0-2.598-0.645-4.565-1.933-5.9c-1.286-1.335-3.325-2.004-6.114-2.004c-0.382,0-0.776,0.009-1.183,0.021
				c-0.403,0.009-0.784,0.039-1.143,0.089V34.295z"/>
		</g>
		<g>
			<linearGradient id="SVGID_22_" gradientUnits="userSpaceOnUse" x1="0.5542" y1="32.9131" x2="0.5542" y2="32.9229">
				<stop  offset="0" style="stop-color:#000000"/>
				<stop  offset="1" style="stop-color:#000000;stop-opacity:0"/>
			</linearGradient>
			<path fill="url(#SVGID_22_)" d="M0.554,32.923L0.554,32.923C0.556,32.914,0.556,32.906,0.554,32.923"/>
		</g>
	</g>
	<g>
		<linearGradient id="SVGID_23_" gradientUnits="userSpaceOnUse" x1="24.73" y1="-223.3242" x2="24.73" y2="70.2029">
			<stop  offset="0" style="stop-color:#000000"/>
			<stop  offset="1" style="stop-color:#000000;stop-opacity:0"/>
		</linearGradient>
		<path fill="url(#SVGID_23_)" d="M23.199,47.821c2.587,0,4.514,0.47,5.78,1.408s1.9,2.271,1.9,3.997
			c0,0.989-0.185,1.831-0.554,2.526c-0.37,0.695-0.897,1.257-1.584,1.685c-0.687,0.427-1.527,0.737-2.521,0.93
			c-0.995,0.193-2.116,0.289-3.366,0.289h-2.48v6.737H18.58V48.299c0.633-0.167,1.376-0.289,2.23-0.364
			C21.663,47.859,22.46,47.821,23.199,47.821z M23.278,49.305c-0.669,0-1.236,0.021-1.703,0.063c-0.466,0.042-0.866,0.079-1.2,0.112
			v7.692h2.27c0.968,0,1.843-0.054,2.626-0.163c0.783-0.108,1.452-0.31,2.007-0.604c0.554-0.293,0.98-0.699,1.28-1.219
			c0.299-0.52,0.448-1.182,0.448-1.986c0-0.771-0.163-1.407-0.488-1.91c-0.326-0.503-0.757-0.901-1.293-1.194
			c-0.537-0.293-1.148-0.498-1.835-0.616C24.703,49.364,23.999,49.305,23.278,49.305z"/>
		<linearGradient id="SVGID_24_" gradientUnits="userSpaceOnUse" x1="40.8574" y1="-223.3242" x2="40.8574" y2="70.2029">
			<stop  offset="0" style="stop-color:#000000"/>
			<stop  offset="1" style="stop-color:#000000;stop-opacity:0"/>
		</linearGradient>
		<path fill="url(#SVGID_24_)" d="M46.4,53.201c0,1.308-0.361,2.338-1.082,3.092c-0.722,0.755-1.672,1.3-2.851,1.635
			c0.281,0.335,0.646,0.787,1.095,1.357c0.449,0.569,0.911,1.193,1.386,1.872c0.476,0.68,0.941,1.388,1.399,2.125
			c0.457,0.737,0.845,1.441,1.161,2.111h-1.927c-0.369-0.67-0.77-1.341-1.201-2.011c-0.431-0.671-0.871-1.32-1.319-1.948
			c-0.449-0.629-0.885-1.211-1.307-1.747c-0.423-0.536-0.792-1.006-1.108-1.408c-0.563,0.051-1.127,0.075-1.689,0.075h-2.956v7.039
			h-1.795V48.299c0.633-0.167,1.376-0.289,2.23-0.364c0.853-0.075,1.641-0.113,2.362-0.113c2.516,0,4.412,0.453,5.688,1.357
			C45.763,50.084,46.4,51.425,46.4,53.201z M39.01,49.305c-0.669,0-1.254,0.021-1.756,0.063c-0.501,0.042-0.919,0.079-1.253,0.112
			v7.416h2.48c0.827,0,1.61-0.037,2.35-0.113c0.739-0.075,1.381-0.242,1.927-0.502c0.545-0.26,0.977-0.633,1.293-1.119
			c0.317-0.486,0.476-1.147,0.476-1.986c0-0.771-0.158-1.407-0.476-1.91c-0.316-0.503-0.73-0.9-1.24-1.194
			c-0.511-0.293-1.096-0.494-1.755-0.604C40.396,49.359,39.713,49.305,39.01,49.305z"/>
		<linearGradient id="SVGID_25_" gradientUnits="userSpaceOnUse" x1="56.1406" y1="-223.3247" x2="56.1406" y2="70.2018">
			<stop  offset="0" style="stop-color:#000000"/>
			<stop  offset="1" style="stop-color:#000000;stop-opacity:0"/>
		</linearGradient>
		<path fill="url(#SVGID_25_)" d="M50.519,65.394V47.973h10.558v1.483h-8.763v6.058h7.813v1.458h-7.813v6.938h9.449v1.483H50.519z"
			/>
		<linearGradient id="SVGID_26_" gradientUnits="userSpaceOnUse" x1="74.2212" y1="-223.3247" x2="74.2212" y2="70.2018">
			<stop  offset="0" style="stop-color:#000000"/>
			<stop  offset="1" style="stop-color:#000000;stop-opacity:0"/>
		</linearGradient>
		<path fill="url(#SVGID_26_)" d="M73.403,62.88c-0.178-0.419-0.43-0.972-0.756-1.659c-0.327-0.688-0.693-1.437-1.101-2.25
			c-0.406-0.813-0.822-1.65-1.246-2.514s-0.831-1.672-1.219-2.426c-0.39-0.755-0.734-1.416-1.034-1.986
			c-0.301-0.569-0.522-0.972-0.663-1.207c-0.229,2.096-0.409,4.37-0.541,6.825c-0.132,2.456-0.251,5.032-0.356,7.73h-1.769
			c0.158-3.167,0.339-6.2,0.541-9.101c0.202-2.898,0.453-5.672,0.753-8.32h1.583c0.529,0.838,1.093,1.806,1.693,2.903
			c0.599,1.098,1.194,2.237,1.784,3.419c0.591,1.182,1.164,2.347,1.72,3.494c0.555,1.148,1.045,2.184,1.468,3.104
			c0.423-0.921,0.912-1.956,1.468-3.104c0.556-1.147,1.129-2.313,1.719-3.494c0.591-1.182,1.187-2.321,1.786-3.419
			c0.599-1.098,1.163-2.065,1.692-2.903h1.505c0.299,2.648,0.55,5.422,0.752,8.32c0.202,2.9,0.383,5.934,0.541,9.101h-1.821
			c-0.105-2.698-0.225-5.274-0.356-7.73c-0.132-2.455-0.313-4.729-0.541-6.825c-0.141,0.235-0.361,0.638-0.66,1.207
			c-0.299,0.57-0.643,1.231-1.029,1.986c-0.387,0.754-0.792,1.563-1.214,2.426c-0.423,0.863-0.836,1.701-1.241,2.514
			c-0.404,0.813-0.77,1.563-1.095,2.25c-0.326,0.688-0.577,1.24-0.753,1.659H73.403z"/>
		<linearGradient id="SVGID_27_" gradientUnits="userSpaceOnUse" x1="88.8975" y1="-223.3247" x2="88.8974" y2="70.2018">
			<stop  offset="0" style="stop-color:#000000"/>
			<stop  offset="1" style="stop-color:#000000;stop-opacity:0"/>
		</linearGradient>
		<path fill="url(#SVGID_27_)" d="M88,47.973h1.795v17.421H88V47.973z"/>
		<linearGradient id="SVGID_28_" gradientUnits="userSpaceOnUse" x1="100.167" y1="-223.3247" x2="100.167" y2="70.2018">
			<stop  offset="0" style="stop-color:#000000"/>
			<stop  offset="1" style="stop-color:#000000;stop-opacity:0"/>
		</linearGradient>
		<path fill="url(#SVGID_28_)" d="M94.545,65.394V47.973h10.558v1.483H96.34v6.058h7.813v1.458H96.34v6.938h9.449v1.483H94.545z"/>
		<linearGradient id="SVGID_29_" gradientUnits="userSpaceOnUse" x1="115.8457" y1="-223.3242" x2="115.8457" y2="70.2029">
			<stop  offset="0" style="stop-color:#000000"/>
			<stop  offset="1" style="stop-color:#000000;stop-opacity:0"/>
		</linearGradient>
		<path fill="url(#SVGID_29_)" d="M121.389,53.201c0,1.308-0.361,2.338-1.082,3.092c-0.722,0.755-1.672,1.3-2.851,1.635
			c0.281,0.335,0.646,0.787,1.095,1.357c0.449,0.569,0.911,1.193,1.386,1.872c0.476,0.68,0.941,1.388,1.399,2.125
			c0.457,0.737,0.845,1.441,1.161,2.111h-1.927c-0.369-0.67-0.77-1.341-1.201-2.011c-0.431-0.671-0.871-1.32-1.319-1.948
			c-0.449-0.629-0.885-1.211-1.307-1.747c-0.423-0.536-0.792-1.006-1.108-1.408c-0.563,0.051-1.127,0.075-1.689,0.075h-2.956v7.039
			h-1.795V48.299c0.633-0.167,1.376-0.289,2.23-0.364c0.853-0.075,1.641-0.113,2.362-0.113c2.516,0,4.412,0.453,5.688,1.357
			C120.751,50.084,121.389,51.425,121.389,53.201z M113.998,49.305c-0.669,0-1.254,0.021-1.756,0.063
			c-0.501,0.042-0.919,0.079-1.253,0.112v7.416h2.48c0.827,0,1.61-0.037,2.35-0.113c0.739-0.075,1.381-0.242,1.927-0.502
			c0.545-0.26,0.977-0.633,1.293-1.119c0.317-0.486,0.476-1.147,0.476-1.986c0-0.771-0.158-1.407-0.476-1.91
			c-0.316-0.503-0.73-0.9-1.24-1.194c-0.511-0.293-1.096-0.494-1.755-0.604C115.384,49.359,114.701,49.305,113.998,49.305z"/>
	</g>
	<g>
		<linearGradient id="SVGID_30_" gradientUnits="userSpaceOnUse" x1="158.167" y1="-223.3242" x2="158.167" y2="70.2031">
			<stop  offset="0" style="stop-color:#000000"/>
			<stop  offset="1" style="stop-color:#000000;stop-opacity:0"/>
		</linearGradient>
		<path fill="url(#SVGID_30_)" d="M182.542,43.967l-1.473-1.002v0.007h-5.853c-1.129,5.955-5.295,10.831-10.829,12.957
			c-0.015,0.008-0.027,0.011-0.044,0.02c-0.199,0.074-0.4,0.146-0.605,0.214c-0.06,0.02-0.118,0.041-0.177,0.063
			c-0.178,0.056-0.356,0.109-0.536,0.161c-0.089,0.028-0.18,0.054-0.268,0.077c-0.16,0.045-0.321,0.087-0.486,0.127
			c-0.11,0.025-0.221,0.051-0.334,0.077c-0.148,0.032-0.299,0.064-0.446,0.094c-0.13,0.025-0.265,0.047-0.394,0.068
			c-0.137,0.025-0.273,0.049-0.412,0.068c-0.152,0.022-0.302,0.037-0.452,0.058c-0.124,0.014-0.247,0.03-0.372,0.044
			c-0.178,0.017-0.357,0.028-0.536,0.04c-0.104,0.008-0.203,0.017-0.305,0.02c-0.281,0.015-0.566,0.022-0.852,0.022h-0.001l0,0
			c-0.079,0-0.161-0.005-0.241-0.005c-9.474-0.131-17.114-7.845-17.114-17.351c0-9.585,7.771-17.356,17.355-17.356
			c4.691,0,8.946,1.865,12.07,4.891l-0.069,0.057l-3.626,3.027l-1.812,1.514c-1.779-1.485-4.066-2.38-6.563-2.38
			c-5.66,0-10.248,4.588-10.248,10.248s4.588,10.246,10.248,10.246c4.525,0,8.363-2.933,9.722-7h-6.098
			c-0.801,0.777-1.892,1.256-3.097,1.256c-2.46,0-4.452-1.994-4.452-4.45c0-2.459,1.992-4.453,4.452-4.453
			c1.205,0,2.296,0.479,3.096,1.259h19.191l1.56-0.999c0.621-0.396,0.941-1.295,0.715-1.994l-1.157-3.555
			c-0.228-0.701-1.014-1.24-1.749-1.194l-2.971,0.176c-0.847-1.521-1.865-2.93-3.036-4.201l1.08-2.755
			c0.269-0.686,0-1.603-0.595-2.037l-3.025-2.196c-0.595-0.434-1.549-0.405-2.118,0.061l-2.269,1.864
			c-1.563-0.725-3.226-1.275-4.963-1.618l-0.739-2.833c-0.187-0.713-0.94-1.295-1.678-1.295H156.3c-0.737,0-1.493,0.582-1.68,1.295
			l-0.739,2.833c-1.738,0.343-3.404,0.894-4.97,1.618l-2.263-1.86c-0.569-0.468-1.52-0.498-2.117-0.064l-3.023,2.196
			c-0.597,0.435-0.861,1.352-0.592,2.035l1.08,2.752c-1.172,1.273-2.197,2.689-3.045,4.213l-2.965-0.182
			c-0.735-0.043-1.523,0.492-1.751,1.193l-1.157,3.555c-0.228,0.699,0.096,1.598,0.716,1.994l2.539,1.619
			c-0.092,0.815-0.141,1.646-0.141,2.487c0,0.895,0.054,1.777,0.161,2.65l-2.56,1.628c-0.62,0.398-0.943,1.291-0.716,1.994
			l1.157,3.556c0.228,0.7,1.016,1.237,1.751,1.19l3.059-0.183c0.843,1.48,1.851,2.853,2.999,4.094l-1.128,2.875
			c-0.27,0.685-0.005,1.603,0.592,2.033l3.023,2.194c0.598,0.438,1.548,0.407,2.117-0.062l2.398-1.978
			c1.513,0.695,3.12,1.218,4.796,1.555l0.782,3.014c0.184,0.715,0.938,1.298,1.675,1.298h3.737c0.737,0,1.489-0.583,1.674-1.298
			l0.782-3.014c1.673-0.333,3.278-0.859,4.788-1.548l2.404,1.972c0.569,0.468,1.523,0.499,2.118,0.061l3.025-2.194
			c0.595-0.431,0.863-1.35,0.595-2.033l-1.127-2.882c1.145-1.237,2.148-2.604,2.986-4.082l3.067,0.18
			c0.735,0.045,1.521-0.492,1.749-1.192l1.157-3.556C183.483,45.26,183.163,44.365,182.542,43.967"/>
	</g>
	<g>
		<g>
			<linearGradient id="SVGID_31_" gradientUnits="userSpaceOnUse" x1="69.7944" y1="-223.3242" x2="69.7944" y2="70.2031">
				<stop  offset="0" style="stop-color:#000000"/>
				<stop  offset="1" style="stop-color:#000000;stop-opacity:0"/>
			</linearGradient>
			<polyline fill="url(#SVGID_31_)" points="16.867,43.754 16.867,42.754 122.722,42.754 122.722,43.754 122.722,43.754 			"/>
		</g>
	</g>
</g>
</svg>
