<?xml version="1.0" encoding="utf-8"?>
<!-- Generator: Adobe Illustrator 16.0.0, SVG Export Plug-In . SVG Version: 6.00 Build 0)  -->
<!DOCTYPE svg PUBLIC "-//W3C//DTD SVG 1.1//EN" "http://www.w3.org/Graphics/SVG/1.1/DTD/svg11.dtd">
<svg version="1.1" id="Layer_1" xmlns="http://www.w3.org/2000/svg" xmlns:xlink="http://www.w3.org/1999/xlink" x="0px" y="0px"
	 width="500px" height="500px" viewBox="0 0 500 500" enable-background="new 0 0 500 500" xml:space="preserve">
<g>
	<g>
		<path fill="#D03135" d="M426.327,324.858H44.61c-6.4,0-11.575-5.188-11.575-11.575V60.351c0-6.374,5.175-11.562,11.575-11.562
			h381.717c6.387,0,11.561,5.174,11.561,11.562v252.933C437.888,319.671,432.714,324.858,426.327,324.858z M56.172,301.721h358.579
			V71.939H56.172V301.721z"/>
	</g>
	<g>
		<path fill="#D03135" d="M235.455,198.395c-2.229,0-4.445-0.641-6.375-1.919L38.209,69.998c-5.318-3.532-6.792-10.701-3.247-16.021
			c3.534-5.331,10.704-6.79,16.034-3.257l184.458,122.242L419.926,50.719c5.306-3.532,12.497-2.074,16.021,3.257
			c3.531,5.32,2.072,12.502-3.247,16.021L241.858,196.461C239.916,197.753,237.684,198.395,235.455,198.395z"/>
	</g>
	<g>
		
			<path fill="#D03135" stroke="#FFFFFF" stroke-width="1.7748" stroke-linecap="round" stroke-linejoin="round" stroke-miterlimit="10" d="
			M44.61,313.283"/>
	</g>
</g>
<circle fill="#FFFFFF" stroke="#D03135" stroke-width="24" stroke-miterlimit="10" cx="356.763" cy="353.687" r="102.77"/>
<g>
	<g>
		<path fill="#D03135" d="M362.59,302.347c-2.406,2.149-3.631,5.128-3.631,8.118c0,2.58,0.912,5.173,2.765,7.248l23.386,26.177
			h-83.876c-6.012,0-10.889,4.872-10.889,10.884c0,6.013,4.877,10.885,10.889,10.885h83.876l-23.386,26.177
			c-4.006,4.484-3.617,11.363,0.872,15.367c4.478,4.003,11.361,3.617,15.365-0.866l35.363-39.59c6.096-6.821,6.102-17.123,0-23.944
			l-35.363-39.595C373.952,298.729,367.073,298.342,362.59,302.347z"/>
	</g>
</g>
</svg>
