<?xml version="1.0" encoding="utf-8"?>
<!-- Generator: Adobe Illustrator 16.0.0, SVG Export Plug-In . SVG Version: 6.00 Build 0)  -->
<!DOCTYPE svg PUBLIC "-//W3C//DTD SVG 1.1//EN" "http://www.w3.org/Graphics/SVG/1.1/DTD/svg11.dtd">
<svg version="1.1" id="Icons" xmlns="http://www.w3.org/2000/svg" xmlns:xlink="http://www.w3.org/1999/xlink" x="0px" y="0px"
	 width="500px" height="500px" viewBox="0 0 500 500" enable-background="new 0 0 500 500" xml:space="preserve">
<path id="Cost" fill="#CF3035" d="M298.738,235.091c-6.57-3.557-13.461-6.568-20.338-9.51
	c-13.769-5.869-27.844-11.051-41.375-17.395c-10.21-4.79-13.894-13.432-12.031-23.964c1.891-10.602,9.749-18.697,19.903-20.462
	c14.666-2.563,25.703,3.179,33.517,15.323c3.348,5.196,5.813,10.966,8.895,16.891c12.719-5.238,25.604-10.532,38.53-15.84
	c-3.642-12.409-8.894-23.25-17.213-32.479c-11.864-13.165-27.299-19.16-44.638-21.639V100.23h-28.237v25.813
	c-2.269,0.434-4.117,0.784-5.953,1.148c-19.986,3.978-36.052,13.488-45.898,32.073c-4.748,8.964-7.69,18.39-8.81,28.432
	c-3.25,28.796,9.58,53.418,35.352,66.597c8.866,4.523,18.32,7.871,27.536,11.709c10.505,4.369,21.136,8.445,31.515,13.082
	c9.131,4.074,13.122,11.695,12.759,21.525c-0.393,10.477-4.706,18.824-14.454,23.391c-21.738,10.197-46.921-0.645-54.513-23.277
	c-1.121-3.361-1.933-6.836-2.983-10.631c-7.494,1.975-14.692,3.879-21.905,5.771c-7.171,1.875-14.343,3.725-21.472,5.572
	c7.367,35.771,29.007,60.703,69.037,65.184v33.151h28.209v-33.348c1.736-0.336,3.234-0.715,4.748-0.926
	c37.844-4.983,61.305-29.175,63.938-67.213C334.804,270.371,323.795,248.691,298.738,235.091z"/>
<path fill="#CF3035" d="M250,25.335C126.125,25.335,25.335,126.125,25.335,250c0,123.873,100.79,224.665,224.665,224.665
	S474.665,373.873,474.665,250C474.665,126.125,373.875,25.335,250,25.335z M250,446.581C141.599,446.581,53.418,358.4,53.418,250
	c0-108.401,88.181-196.582,196.582-196.582c108.4,0,196.581,88.181,196.581,196.582C446.581,358.4,358.4,446.581,250,446.581z"/>
</svg>
